{
  "books": [
    {
      "name": "meu teste",
      "author": "autor",
      "price": 19.99,
      "id": 18
    },
    {
      "id": 28,
      "name": "Ultimo",
      "author": "typicode",
      "price": 1212313
    },
    {
      "name": "rerew",
      "author": "rewre",
      "price": 232.32,
      "id": 29
    },
    {
      "name": "dsdsd",
      "author": "asdsad",
      "price": 1231.23,
      "id": 30
    },
    {
      "name": "wqeqwe",
      "author": "qwe",
      "price": 10,
      "id": 31
    },
    {
      "name": "asdasd",
      "author": "asda",
      "price": 11.11,
      "id": 32
    },
    {
      "name": "weweww",
      "author": "ewe",
      "price": 23232.32,
      "id": 33
    },
    {
      "name": "werwer",
      "author": "werew",
      "price": 12.11,
      "id": 34
    },
    {
      "name": "sadasd",
      "author": "123123",
      "price": 111.11,
      "id": 35
    },
    {
      "name": "asdasd",
      "author": "123123",
      "price": 111.11,
      "id": 36
    }
  ]
}
